[{
  "id": 1,
  "fecha": "8/31/2019",
  "importe": 4,
  "latitude": 49.8905368,
  "longitud": 2.3081396
}, {
  "id": 2,
  "fecha": "6/13/2019",
  "importe": 90,
  "latitude": 47.6252225,
  "longitud": 0.277316
}, {
  "id": 3,
  "fecha": "12/12/2019",
  "importe": 50,
  "latitude": 51.5116933,
  "longitud": -0.0829051
}, {
  "id": 4,
  "fecha": "9/16/2019",
  "importe": 51,
  "latitude": 1.2413682,
  "longitud": 33.1239049
}, {
  "id": 5,
  "fecha": "12/9/2019",
  "importe": 32,
  "latitude": 19.5042619,
  "longitud": -98.8797029
}, {
  "id": 6,
  "fecha": "5/19/2019",
  "importe": 52,
  "latitude": 14.9619281,
  "longitud": 120.8947635
}, {
  "id": 7,
  "fecha": "8/2/2019",
  "importe": 83,
  "latitude": "-8.729",
  "longitud": "122.0188"
}, {
  "id": 8,
  "fecha": "9/30/2019",
  "importe": 55,
  "latitude": 31.7338222,
  "longitud": 118.8719394
}, {
  "id": 9,
  "fecha": "5/3/2019",
  "importe": 1,
  "latitude": -21.357789,
  "longitud": -46.1496185
}, {
  "id": 10,
  "fecha": "10/30/2019",
  "importe": 59,
  "latitude": 21.104739,
  "longitud": -101.670897
}]
